{
  "rubric": {
    "id": 1,
    "languages": {
      "ru": "Russian"
    },
    "title": {
      "ru": "Оценочный лист творческого проекта"
    },
    "criteria_groups": [
      {
        "title": {
          "ru": "Проект"
        },
        "order": 1,
        "criteria": [
          {
            "title": {
              "ru": "Творчество"
            },
            "description": {
              "ru": "Проект оригинальный, перспективный, отражает творческое мышление, новаторский и творческий дизайн, интересные и разноплановые интерпретации и возможности реализации."
            },
            "score": 10,
            "order": 1
          },
          {
            "title": {
              "ru": "Качество решения"
            },
            "description": {
              "ru": "Проект хорошо продуман и предлагает хорошее решение проблемы. Решение соответствует тематике, помогает человечеству решать задачи в мире."
            },
            "score": 15,
            "order": 2
          },
          {
            "title": {
              "ru": "Исследование и отчет"
            },
            "description": {
              "ru": "Проведение исследования очевидно. Отчет представляет собой резюме проекта: проблемы - решения - процесс - выводы - команда - задача."
            },
            "score": 15,
            "order": 3
          },
          {
            "title": {
              "ru": "Зрелищность"
            },
            "description": {
              "ru": "Проект оказывает определенный wow-эффект - радует, привлекает внимание, вызывает желание увидеть его снова или узнать о нем больше."
            },
            "score": 10,
            "order": 4
          }
        ]
      },
      {
        "title": {
          "ru": "Программирование"
        },
        "order": 2,
        "criteria": [
          {
            "title": {
              "ru": "Автоматизация"
            },
            "description": {
              "ru": "Проект использует приемлемые входные данные от датчиков, чтобы запустить соответствующие процедуры, и ясно демонстрирует автоматизацию в выполнении заданий."
            },
            "score": 15,
            "order": 1
          },
          {
            "title": {
              "ru": "Хорошая логика"
            },
            "description": {
              "ru": "Используемые варианты программирования обоснованы, надежны, актуальны с точки зрения их использования, сложности и дизайна."
            },
            "score": 15,
            "order": 2
          },
          {
            "title": {
              "ru": "Сложность"
            },
            "description": {
              "ru": "Проект использует несколько языков, датчиков или контроллеров и включает в себя более продвинутые/сложные алгоритмы, структуру и дизайн."
            },
            "score": 15,
            "order": 3
          }
        ]
      },
      {
        "title": {
          "ru": "Инженерное проектирование"
        },
        "order": 3,
        "criteria": [
          {
            "title": {
              "ru": "Понимание технической части"
            },
            "description": {
              "ru": "Члены команды могут ясно, точно и убедительно объяснить каждый шаг процесса механической и программной частей."
            },
            "score": 15,
            "order": 1
          },
          {
            "title": {
              "ru": "Инженерные концепции"
            },
            "description": {
              "ru": "Проект подтверждает и демонстрирует удачное использование инженерных концепций, и члены команды могут пояснить эти концепции и необходимость их использования."
            },
            "score": 10,
            "order": 2
          },
          {
            "title": {
              "ru": "Механическая эффективность"
            },
            "description": {
              "ru": "Детали и энергия были эффективно использованы - имеется доказательство надлежащего использования механических концепций/принципов (шестеренки/шкивы/рычаги/колеса и оси)"
            },
            "score": 10,
            "order": 3
          },
          {
            "title": {
              "ru": "Устойчивость конструкции"
            },
            "description": {
              "ru": "Проект (роботы и конструкции) прочные и крепкие. Демонстрация может проводиться многократно - детали не отсоединяются – необходимость в ремонте минимальна."
            },
            "score": 5,
            "order": 4
          },
          {
            "title": {
              "ru": "Эстетичность"
            },
            "description": {
              "ru": "Механические детали эстетически привлекательны. Очевидно, что команда приложила много усилий, чтобы проект выглядел профессионально."
            },
            "score": 5,
            "order": 5
          }
        ]
      },
      {
        "title": {
          "ru": "Презентация"
        },
        "order": 4,
        "criteria": [
          {
            "title": {
              "ru": "Успешная демонстрация"
            },
            "description": {
              "ru": "Демонстрация возможностей завершена, и есть ощущение, что она может быть многократно повторена, подготовка и практика также имели место быть."
            },
            "score": 15,
            "order": 1
          },
          {
            "title": {
              "ru": "Навыки общения и аргументации"
            },
            "description": {
              "ru": "Команда смогла представить идею своего проекта интересным образом - как он работает - почему они выбрали его - почему он актуален"
            },
            "score": 10,
            "order": 2
          },
          {
            "title": {
              "ru": "Оформление"
            },
            "description": {
              "ru": "Материалы для представления проекта другим понятны, лаконичны, актуальны, аккуратно подготовлены и занимают мин. 1 x (120 x 90)."
            },
            "score": 5,
            "order": 3
          },
          {
            "title": {
              "ru": "Английский язык"
            },
            "description": {
              "ru": "Оценивается уровень английского языка (докладчики смогли произнести текст разборчиво, терминология используется грамотно)."
            },
            "score": 20,
            "order": 4
          }
        ]
      },
      {
        "title": {
          "ru": "Командная работа"
        },
        "order": 5,
        "criteria": [
          {
            "title": {
              "ru": "Единый результат обучения"
            },
            "description": {
              "ru": "Очевидно, что члены команды обладают усвоенными знаниями и пониманием предмета, относящегося к проекту."
            },
            "score": 10,
            "order": 1
          },
          {
            "title": {
              "ru": "Командный дух"
            },
            "description": {
              "ru": "Команда излучает положительную энергию, демонстрирует хорошую сплоченность. Члены команды ценят друг друга, с энтузиазмом и воодушевлением делятся своим проектом с другими."
            },
            "score": 5,
            "order": 2
          }
        ]
      }
    ]
  }
}